# Blender v2.79 (sub 0) OBJ File: 'arrow.blend'
# www.blender.org
v 0.271575 1.009615 -0.271575
v 0.271575 1.009615 0.271575
v -0.271575 1.009615 0.271575
v -0.271575 1.009615 -0.271575
v 0.271575 2.481388 -0.271575
v 0.271575 2.481388 0.271575
v -0.271575 2.481388 0.271575
v -0.271575 2.481388 -0.271575
v 0.686150 1.009615 -0.686150
v 0.686150 1.009615 0.686150
v -0.686150 1.009615 -0.686150
v -0.686150 1.009615 0.686150
v -0.000000 0.042775 0.000000
v -0.000000 0.042775 0.000000
v -0.000000 0.042775 0.000000
v -0.000000 0.042775 0.000000
s off
f 3 4 11 12
f 5 8 7 6
f 1 5 6 2
f 2 6 7 3
f 3 7 8 4
f 5 1 4 8
f 10 12 16 14
f 2 3 12 10
f 4 1 9 11
f 1 2 10 9
f 13 14 16 15
f 9 10 14 13
f 12 11 15 16
f 11 9 13 15
